[gd_scene load_steps=9 format=2]

[ext_resource path="res://Assets/Maps/myTileMap.tres" type="TileSet" id=1]
[ext_resource path="res://Scenes/player.tscn" type="PackedScene" id=2]
[ext_resource path="res://Assets/freescifiplatform/png/Objects/DoorLocked.png" type="Texture" id=3]
[ext_resource path="res://Scripts/winGame.gd" type="Script" id=4]
[ext_resource path="res://Scripts/trapHorizontal.gd" type="Script" id=5]
[ext_resource path="res://Scenes/spikeTrap.tscn" type="PackedScene" id=6]

[sub_resource type="CircleShape2D" id=2]
radius = 50.9355

[sub_resource type="RectangleShape2D" id=1]
extents = Vector2( 24.8743, 5.40148 )

[node name="Map 3" type="Node2D"]

[node name="TileMap" type="TileMap" parent="."]
tile_set = ExtResource( 1 )
cell_size = Vector2( 43, 43 )
format = 1
tile_data = PoolIntArray( -458752, 6, 0, -458751, 6, 0, -458750, 6, 0, -458749, 6, 0, -458748, 6, 0, -458747, 6, 0, -458746, 6, 0, -458745, 6, 0, -458744, 6, 0, -458743, 6, 0, -458742, 6, 0, -458741, 6, 0, -458740, 6, 0, -458739, 6, 0, -458738, 6, 0, -458737, 6, 0, -458736, 6, 0, -458735, 6, 0, -458734, 6, 0, -458733, 6, 0, -458732, 6, 0, -458731, 6, 0, -458730, 6, 0, -393216, 6, 0, -393194, 6, 0, -327680, 6, 0, -327658, 6, 0, -262144, 6, 0, -262122, 6, 0, -196608, 6, 0, -196586, 6, 0, -131072, 6, 0, -131050, 6, 0, -65536, 6, 0, -65514, 6, 0, -65513, 6, 0, -65512, 6, 0, -65511, 6, 0, -65510, 6, 0, -65509, 6, 0, -65508, 6, 0, -65507, 6, 0, -65506, 6, 0, -65505, 6, 0, -65504, 6, 0, 0, 6, 0, 12, 10, 0, 22, 6, 0, 32, 6, 0, 65536, 6, 0, 65544, 11, 0, 65547, 10, 0, 65549, 10, 0, 65558, 6, 0, 65568, 6, 0, 65569, 6, 0, 131072, 6, 0, 131077, 2, 0, 131078, 2, 0, 131079, 18, 0, 131080, 18, 0, 131082, 12, 0, 131084, 10, 0, 131086, 10, 0, 131094, 6, 0, 131105, 6, 0, 196608, 6, 0, 196609, 8, 0, 196613, 6, 0, 196614, 6, 0, 196615, 6, 0, 196616, 6, 0, 196617, 10, 0, 196618, 10, 0, 196619, 10, 0, 196623, 10, 0, 196625, 10, 0, 196628, 10, 0, 196630, 6, 0, 196641, 6, 0, 262144, 6, 0, 262145, 6, 0, 262146, 6, 0, 262147, 6, 0, 262148, 6, 0, 262149, 6, 0, 262150, 6, 0, 262151, 6, 0, 262152, 6, 0, 262153, 6, 0, 262154, 6, 0, 262155, 6, 0, 262156, 6, 0, 262157, 6, 0, 262158, 6, 0, 262159, 6, 0, 262160, 6, 0, 262166, 6, 0, 262177, 6, 0, 327680, 6, 0, 327702, 6, 0, 327713, 6, 0, 393216, 6, 0, 393235, 8, 0, 393238, 6, 0, 393243, 10, 0, 393244, 10, 0, 393245, 6, 0, 393246, 6, 0, 393247, 6, 0, 393248, 6, 0, 393249, 6, 0, 458752, 6, 0, 458770, 8, 0, 458774, 6, 0, 458776, 10, 0, 458777, 10, 0, 458781, 6, 0, 524288, 6, 0, 524310, 6, 0, 524317, 6, 0, 589824, 6, 0, 589839, 6, 0, 589846, 6, 0, 589853, 6, 0, 655360, 6, 0, 655361, 6, 0, 655362, 6, 0, 655363, 6, 0, 655364, 6, 0, 655365, 6, 0, 655366, 6, 0, 655367, 6, 0, 655374, 10, 0, 655375, 6, 0, 655376, 6, 0, 655381, 6, 0, 655382, 6, 0, 655387, 10, 0, 655388, 10, 0, 655389, 6, 0, 720896, 6, 0, 720897, 6, 0, 720898, 6, 0, 720899, 6, 0, 720900, 6, 0, 720901, 6, 0, 720902, 6, 0, 720903, 6, 0, 720908, 10, 0, 720911, 6, 0, 720912, 6, 0, 720913, 6, 0, 720914, 6, 0, 720915, 6, 0, 720916, 6, 0, 720925, 6, 0, 786432, 6, 0, 786433, 6, 0, 786434, 6, 0, 786435, 6, 0, 786436, 6, 0, 786437, 6, 0, 786438, 6, 0, 786439, 6, 0, 786442, 10, 0, 786456, 10, 0, 786457, 10, 0, 786461, 6, 0, 851968, 6, 0, 851969, 6, 0, 851970, 6, 0, 851971, 6, 0, 851972, 6, 0, 851973, 6, 0, 851974, 6, 0, 851975, 6, 0, 851976, 10, 0, 851990, 10, 0, 851997, 6, 0, 917504, 6, 0, 917505, 6, 0, 917506, 6, 0, 917507, 6, 0, 917508, 6, 0, 917509, 6, 0, 917510, 6, 0, 917511, 6, 0, 917514, 10, 0, 917524, 10, 0, 917533, 6, 0, 983040, 6, 0, 983041, 6, 0, 983042, 6, 0, 983043, 6, 0, 983044, 6, 0, 983045, 6, 0, 983046, 6, 0, 983047, 6, 0, 983052, 10, 0, 983056, 10, 0, 983057, 10, 0, 983069, 6, 0, 1048576, 6, 0, 1048577, 6, 0, 1048578, 6, 0, 1048579, 6, 0, 1048580, 6, 0, 1048581, 6, 0, 1048582, 6, 0, 1048583, 6, 0, 1048590, 10, 0, 1048605, 6, 0, 1114112, 6, 0, 1114113, 6, 0, 1114114, 6, 0, 1114115, 6, 0, 1114116, 6, 0, 1114117, 6, 0, 1114118, 6, 0, 1114119, 6, 0, 1114120, 6, 0, 1114121, 6, 0, 1114122, 6, 0, 1114123, 6, 0, 1114124, 6, 0, 1114125, 6, 0, 1114126, 6, 0, 1114127, 6, 0, 1114128, 6, 0, 1114129, 6, 0, 1114130, 6, 0, 1114131, 6, 0, 1114132, 6, 0, 1114133, 6, 0, 1114134, 6, 0, 1114135, 6, 0, 1114136, 6, 0, 1114137, 6, 0, 1114138, 6, 0, 1114139, 6, 0, 1114140, 6, 0, 1114141, 6, 0 )

[node name="player1" parent="." instance=ExtResource( 2 )]
position = Vector2( 1387.95, 220.836 )

[node name="door finish" type="Sprite" parent="."]
position = Vector2( 60.6859, 99.0111 )
scale = Vector2( 0.125, 0.125 )
texture = ExtResource( 3 )

[node name="Area2D" type="Area2D" parent="door finish"]
script = ExtResource( 4 )

[node name="CollisionShape2D" type="CollisionShape2D" parent="door finish/Area2D"]
position = Vector2( 4.38666, 184.239 )
shape = SubResource( 2 )

[node name="spiketrigger" type="Area2D" parent="."]
editor/display_folded = true
position = Vector2( 185.078, 48.9462 )
script = ExtResource( 5 )
slide_y_up = -200

[node name="CollisionShape2D" type="CollisionShape2D" parent="spiketrigger"]
position = Vector2( 3.28998, 28.5131 )
shape = SubResource( 1 )

[node name="spike" parent="spiketrigger" instance=ExtResource( 6 )]
visible = false
position = Vector2( 6.2045, 99.2 )

[node name="spiketrigger2" type="Area2D" parent="."]
editor/display_folded = true
position = Vector2( 401.855, 6.58741 )
script = ExtResource( 5 )
slide_y_up = -200

[node name="CollisionShape2D" type="CollisionShape2D" parent="spiketrigger2"]
position = Vector2( 4.53583, -7.61646 )
shape = SubResource( 1 )

[node name="spike" parent="spiketrigger2" instance=ExtResource( 6 )]
visible = false
position = Vector2( 6.2045, 99.2 )

[node name="spiketrigger3" type="Area2D" parent="."]
editor/display_folded = true
position = Vector2( 703.35, 48.9462 )
script = ExtResource( 5 )
slide_y_up = -50

[node name="CollisionShape2D" type="CollisionShape2D" parent="spiketrigger3"]
position = Vector2( 4.53583, -7.61646 )
shape = SubResource( 1 )

[node name="spike" parent="spiketrigger3" instance=ExtResource( 6 )]
visible = false
position = Vector2( 6.2045, 99.2 )

[node name="spiketrigger4" type="Area2D" parent="."]
editor/display_folded = true
position = Vector2( 798.035, 142.385 )
script = ExtResource( 5 )
slide_y_up = -300

[node name="CollisionShape2D" type="CollisionShape2D" parent="spiketrigger4"]
position = Vector2( 4.53583, -7.61646 )
shape = SubResource( 1 )

[node name="spike" parent="spiketrigger4" instance=ExtResource( 6 )]
visible = false
position = Vector2( 6.2045, 99.2 )

[node name="spiketrigger5" type="Area2D" parent="."]
editor/display_folded = true
position = Vector2( 829.181, 142.385 )
script = ExtResource( 5 )
slide_y_up = -300

[node name="CollisionShape2D" type="CollisionShape2D" parent="spiketrigger5"]
position = Vector2( 4.53583, -7.61646 )
shape = SubResource( 1 )

[node name="spike" parent="spiketrigger5" instance=ExtResource( 6 )]
visible = false
position = Vector2( 6.2045, 99.2 )

[node name="spiketrigger6" type="Area2D" parent="."]
editor/display_folded = true
position = Vector2( 738.234, 305.591 )
script = ExtResource( 5 )
slide_y_up = -300

[node name="CollisionShape2D" type="CollisionShape2D" parent="spiketrigger6"]
position = Vector2( 4.53583, -7.61646 )
shape = SubResource( 1 )

[node name="spike" parent="spiketrigger6" instance=ExtResource( 6 )]
visible = false
position = Vector2( 6.2045, 99.2 )

[node name="spiketrigger7" type="Area2D" parent="."]
editor/display_folded = true
position = Vector2( 722.038, 321.787 )
script = ExtResource( 5 )
slide_y_up = -300

[node name="CollisionShape2D" type="CollisionShape2D" parent="spiketrigger7"]
position = Vector2( 4.53583, -7.61646 )
shape = SubResource( 1 )

[node name="spike" parent="spiketrigger7" instance=ExtResource( 6 )]
visible = false
position = Vector2( 6.2045, 99.2 )
[connection signal="body_entered" from="door finish/Area2D" to="door finish/Area2D" method="_on_wingame_body_entered"]
[connection signal="body_entered" from="spiketrigger" to="spiketrigger" method="_on_Area2D_body_entered"]
[connection signal="body_entered" from="spiketrigger2" to="spiketrigger2" method="_on_Area2D_body_entered"]
[connection signal="body_entered" from="spiketrigger3" to="spiketrigger3" method="_on_Area2D_body_entered"]
[connection signal="body_entered" from="spiketrigger4" to="spiketrigger4" method="_on_Area2D_body_entered"]
[connection signal="body_entered" from="spiketrigger5" to="spiketrigger5" method="_on_Area2D_body_entered"]
[connection signal="body_entered" from="spiketrigger6" to="spiketrigger6" method="_on_Area2D_body_entered"]
[connection signal="body_entered" from="spiketrigger7" to="spiketrigger7" method="_on_Area2D_body_entered"]
