[gd_scene load_steps=8 format=2]

[ext_resource path="res://Assets/Maps/myTileMap.tres" type="TileSet" id=1]
[ext_resource path="res://Scenes/player.tscn" type="PackedScene" id=2]
[ext_resource path="res://Assets/animatedSprite/teleport.tres" type="SpriteFrames" id=3]
[ext_resource path="res://Scenes/teleportTrigger.tscn" type="PackedScene" id=4]
[ext_resource path="res://Scripts/trapHorizontal.gd" type="Script" id=5]
[ext_resource path="res://Scenes/spikeTrap.tscn" type="PackedScene" id=6]

[sub_resource type="RectangleShape2D" id=1]
extents = Vector2( 24.8743, 5.40148 )

[node name="Map 1" type="Node2D"]

[node name="TileMap" type="TileMap" parent="."]
tile_set = ExtResource( 1 )
cell_size = Vector2( 43, 43 )
format = 1
tile_data = PoolIntArray( -458752, 6, 0, -458751, 6, 0, -458750, 6, 0, -458749, 6, 0, -458748, 6, 0, -458747, 6, 0, -458746, 6, 0, -458745, 6, 0, -458744, 6, 0, -458743, 6, 0, -458742, 6, 0, -458741, 6, 0, -458740, 6, 0, -458739, 6, 0, -458738, 6, 0, -458737, 6, 0, -458736, 6, 0, -458735, 6, 0, -458734, 6, 0, -458733, 6, 0, -458732, 6, 0, -458731, 6, 0, -458730, 6, 0, -393216, 6, 0, -393194, 6, 0, -327680, 6, 0, -327658, 6, 0, -262144, 6, 0, -262122, 6, 0, -196608, 6, 0, -196586, 6, 0, -131072, 6, 0, -131050, 6, 0, -65536, 6, 0, -65514, 6, 0, 0, 6, 0, 12, 10, 0, 22, 6, 0, 65536, 6, 0, 65544, 11, 0, 65547, 10, 0, 65549, 10, 0, 65558, 6, 0, 131072, 6, 0, 131077, 2, 0, 131078, 2, 0, 131079, 18, 0, 131080, 18, 0, 131082, 12, 0, 131084, 10, 0, 131086, 10, 0, 131094, 6, 0, 196608, 6, 0, 196609, 8, 0, 196613, 6, 0, 196614, 6, 0, 196615, 6, 0, 196616, 6, 0, 196617, 10, 0, 196618, 10, 0, 196619, 10, 0, 196623, 10, 0, 196625, 10, 0, 196628, 10, 0, 196630, 6, 0, 262144, 6, 0, 262145, 6, 0, 262146, 6, 0, 262147, 6, 0, 262148, 6, 0, 262149, 6, 0, 262150, 6, 0, 262151, 6, 0, 262152, 6, 0, 262153, 6, 0, 262154, 6, 0, 262155, 6, 0, 262156, 6, 0, 262157, 6, 0, 262158, 6, 0, 262159, 6, 0, 262160, 6, 0, 262161, 6, 0, 262162, 6, 0, 262163, 6, 0, 262164, 6, 0, 262165, 6, 0, 262166, 6, 0 )

[node name="player1" parent="." instance=ExtResource( 2 )]
position = Vector2( 70.9508, 80.7932 )

[node name="teleport" type="AnimatedSprite" parent="."]
position = Vector2( 880.586, 108.471 )
scale = Vector2( 0.125, 0.125 )
frames = ExtResource( 3 )
animation = "idle"
frame = 1
playing = true

[node name="teleport" parent="teleport" instance=ExtResource( 4 )]

[node name="spiketrigger" type="Area2D" parent="."]
editor/display_folded = true
position = Vector2( 185.078, 48.9462 )
script = ExtResource( 5 )
slide_y_up = -200

[node name="CollisionShape2D" type="CollisionShape2D" parent="spiketrigger"]
position = Vector2( 3.28998, 28.5131 )
shape = SubResource( 1 )

[node name="spike" parent="spiketrigger" instance=ExtResource( 6 )]
visible = false
position = Vector2( 6.2045, 99.2 )

[node name="spiketrigger2" type="Area2D" parent="."]
editor/display_folded = true
position = Vector2( 401.855, 6.58741 )
script = ExtResource( 5 )
slide_y_up = -200

[node name="CollisionShape2D" type="CollisionShape2D" parent="spiketrigger2"]
position = Vector2( 4.53583, -7.61646 )
shape = SubResource( 1 )

[node name="spike" parent="spiketrigger2" instance=ExtResource( 6 )]
visible = false
position = Vector2( 6.2045, 99.2 )

[node name="spiketrigger3" type="Area2D" parent="."]
editor/display_folded = true
position = Vector2( 703.35, 48.9462 )
script = ExtResource( 5 )
slide_y_up = -50

[node name="CollisionShape2D" type="CollisionShape2D" parent="spiketrigger3"]
position = Vector2( 4.53583, -7.61646 )
shape = SubResource( 1 )

[node name="spike" parent="spiketrigger3" instance=ExtResource( 6 )]
visible = false
position = Vector2( 6.2045, 99.2 )
[connection signal="body_entered" from="spiketrigger" to="spiketrigger" method="_on_Area2D_body_entered"]
[connection signal="body_entered" from="spiketrigger2" to="spiketrigger2" method="_on_Area2D_body_entered"]
[connection signal="body_entered" from="spiketrigger3" to="spiketrigger3" method="_on_Area2D_body_entered"]
